module github.com/tailscale/terraform-provider-tailscale

go 1.21

toolchain go1.21.0

require (
	github.com/google/go-cmp v0.5.9
	github.com/hashicorp/go-cty v1.4.1-0.20200414143053-d3edf31b6320
	github.com/hashicorp/go-uuid v1.0.3
	github.com/hashicorp/terraform-plugin-docs v0.16.0
	github.com/hashicorp/terraform-plugin-sdk/v2 v2.29.0
	github.com/stretchr/testify v1.8.4
	github.com/tailscale/hujson v0.0.0-20221223112325-20486734a56a
	github.com/tailscale/tailscale-client-go v1.13.0
	golang.org/x/tools v0.13.0
	tailscale.com v1.50.0
)

require (
	github.com/Masterminds/goutils v1.1.1 // indirect
	github.com/Masterminds/semver/v3 v3.2.1 // indirect
	github.com/Masterminds/sprig/v3 v3.2.3 // indirect
	github.com/ProtonMail/go-crypto v0.0.0-20230717121422-5aa5874ade95 // indirect
	github.com/agext/levenshtein v1.2.3 // indirect
	github.com/apparentlymart/go-textseg/v15 v15.0.0 // indirect
	github.com/armon/go-radix v1.0.0 // indirect
	github.com/bgentry/speakeasy v0.1.0 // indirect
	github.com/cloudflare/circl v1.3.3 // indirect
	github.com/davecgh/go-spew v1.1.1 // indirect
	github.com/fatih/color v1.15.0 // indirect
	github.com/golang/protobuf v1.5.3 // indirect
	github.com/google/uuid v1.3.0 // indirect
	github.com/hashicorp/errwrap v1.1.0 // indirect
	github.com/hashicorp/go-checkpoint v0.5.0 // indirect
	github.com/hashicorp/go-cleanhttp v0.5.2 // indirect
	github.com/hashicorp/go-hclog v1.5.0 // indirect
	github.com/hashicorp/go-multierror v1.1.1 // indirect
	github.com/hashicorp/go-plugin v1.5.1 // indirect
	github.com/hashicorp/go-version v1.6.0 // indirect
	github.com/hashicorp/hc-install v0.6.0 // indirect
	github.com/hashicorp/hcl/v2 v2.18.0 // indirect
	github.com/hashicorp/logutils v1.0.0 // indirect
	github.com/hashicorp/terraform-exec v0.19.0 // indirect
	github.com/hashicorp/terraform-json v0.17.1 // indirect
	github.com/hashicorp/terraform-plugin-go v0.19.0 // indirect
	github.com/hashicorp/terraform-plugin-log v0.9.0 // indirect
	github.com/hashicorp/terraform-registry-address v0.2.2 // indirect
	github.com/hashicorp/terraform-svchost v0.1.1 // indirect
	github.com/hashicorp/yamux v0.0.0-20211028200310-0bc27b27de87 // indirect
	github.com/huandu/xstrings v1.4.0 // indirect
	github.com/imdario/mergo v0.3.16 // indirect
	github.com/mattn/go-colorable v0.1.13 // indirect
	github.com/mattn/go-isatty v0.0.18 // indirect
	github.com/mitchellh/cli v1.1.5 // indirect
	github.com/mitchellh/copystructure v1.2.0 // indirect
	github.com/mitchellh/go-testing-interface v1.14.1 // indirect
	github.com/mitchellh/go-wordwrap v1.0.1 // indirect
	github.com/mitchellh/mapstructure v1.5.0 // indirect
	github.com/mitchellh/reflectwalk v1.0.2 // indirect
	github.com/oklog/run v1.1.0 // indirect
	github.com/pmezard/go-difflib v1.0.0 // indirect
	github.com/posener/complete v1.2.3 // indirect
	github.com/russross/blackfriday v1.6.0 // indirect
	github.com/shopspring/decimal v1.3.1 // indirect
	github.com/spf13/cast v1.5.1 // indirect
	github.com/vmihailenco/msgpack v4.0.4+incompatible // indirect
	github.com/vmihailenco/msgpack/v5 v5.3.5 // indirect
	github.com/vmihailenco/tagparser/v2 v2.0.0 // indirect
	github.com/zclconf/go-cty v1.14.0 // indirect
	go4.org/mem v0.0.0-20220726221520-4f986261bf13 // indirect
	go4.org/netipx v0.0.0-20230728180743-ad4cb58a6516 // indirect
	golang.org/x/crypto v0.13.0 // indirect
	golang.org/x/exp v0.0.0-20230725093048-515e97ebf090 // indirect
	golang.org/x/mod v0.12.0 // indirect
	golang.org/x/net v0.15.0 // indirect
	golang.org/x/oauth2 v0.12.0 // indirect
	golang.org/x/sys v0.12.0 // indirect
	golang.org/x/text v0.13.0 // indirect
	google.golang.org/appengine v1.6.7 // indirect
	google.golang.org/genproto/googleapis/rpc v0.0.0-20230525234030-28d5490b6b19 // indirect
	google.golang.org/grpc v1.57.0 // indirect
	google.golang.org/protobuf v1.31.0 // indirect
	gopkg.in/yaml.v3 v3.0.1 // indirect
)
